<?xml version="1.0" encoding="UTF-8" standalone="no"?>
<!-- Created with Inkscape (http://www.inkscape.org/) -->

<svg
   xmlns:dc="http://purl.org/dc/elements/1.1/"
   xmlns:cc="http://creativecommons.org/ns#"
   xmlns:rdf="http://www.w3.org/1999/02/22-rdf-syntax-ns#"
   xmlns:svg="http://www.w3.org/2000/svg"
   xmlns="http://www.w3.org/2000/svg"
   xmlns:xlink="http://www.w3.org/1999/xlink"
   xmlns:sodipodi="http://sodipodi.sourceforge.net/DTD/sodipodi-0.dtd"
   xmlns:inkscape="http://www.inkscape.org/namespaces/inkscape"
   width="256"
   height="256"
   viewBox="0 0 239.99999 239.99999"
   id="svg2"
   version="1.1"
   inkscape:version="0.92.4 5da689c313, 2019-01-14"
   sodipodi:docname="org.gabmus.hydrapaper.svg"
   inkscape:export-filename="/home/gabmus/git/razerCommander/icon.png"
   inkscape:export-xdpi="192"
   inkscape:export-ydpi="192">
  <sodipodi:namedview
     id="base"
     pagecolor="#ffffff"
     bordercolor="#666666"
     borderopacity="1.0"
     inkscape:pageopacity="0.0"
     inkscape:pageshadow="2"
     inkscape:zoom="2.8284273"
     inkscape:cx="138.98523"
     inkscape:cy="187.00206"
     inkscape:document-units="px"
     inkscape:current-layer="layer1"
     showgrid="false"
     inkscape:snap-bbox="true"
     inkscape:snap-bbox-midpoints="true"
     inkscape:snap-center="true"
     units="px"
     inkscape:snap-page="true"
     inkscape:bbox-nodes="true"
     inkscape:window-width="1920"
     inkscape:window-height="1016"
     inkscape:window-x="0"
     inkscape:window-y="27"
     inkscape:window-maximized="1"
     inkscape:bbox-paths="false"
     inkscape:snap-bbox-edge-midpoints="false"
     inkscape:measure-start="-387.857,207.857"
     inkscape:measure-end="-490.298,266.428"
     inkscape:snap-global="true"
     inkscape:object-paths="false"
     inkscape:snap-smooth-nodes="false"
     inkscape:snap-nodes="false"
     showguides="false" />
  <defs
     id="defs4">
    <filter
       inkscape:collect="always"
       style="color-interpolation-filters:sRGB"
       id="filter7404"
       x="-0.011851442"
       width="1.0237029"
       y="-0.014894864"
       height="1.0297897">
      <feGaussianBlur
         inkscape:collect="always"
         stdDeviation="2.05425"
         id="feGaussianBlur7406" />
    </filter>
    <linearGradient
       inkscape:collect="always"
       xlink:href="#linearGradient974"
       id="linearGradient3155"
       gradientUnits="userSpaceOnUse"
       gradientTransform="matrix(0.44048943,0,0,0.44048943,-3.6849381,834.78154)"
       x1="48"
       y1="44"
       x2="464"
       y2="44" />
    <linearGradient
       inkscape:collect="always"
       id="linearGradient974">
      <stop
         style="stop-color:#babdb6;stop-opacity:1"
         offset="0"
         id="stop962" />
      <stop
         id="stop964"
         offset="0.04166667"
         style="stop-color:#f6f5f4;stop-opacity:1" />
      <stop
         style="stop-color:#d5d3cf;stop-opacity:1"
         offset="0.08333334"
         id="stop966" />
      <stop
         id="stop968"
         offset="0.91666669"
         style="stop-color:#deddda;stop-opacity:1" />
      <stop
         style="stop-color:#f6f5f4;stop-opacity:1"
         offset="0.95833331"
         id="stop970" />
      <stop
         style="stop-color:#babdb6;stop-opacity:1"
         offset="1"
         id="stop972" />
    </linearGradient>
    <radialGradient
       inkscape:collect="always"
       xlink:href="#linearGradient1020"
       id="radialGradient3157"
       gradientUnits="userSpaceOnUse"
       gradientTransform="matrix(-8.9444832,-4.280559e-7,0,-2.1219336,463.36649,-521.19706)"
       cx="63.999992"
       cy="196.63495"
       fx="63.999992"
       fy="196.63495"
       r="44" />
    <linearGradient
       id="linearGradient1020"
       inkscape:collect="always">
      <stop
         id="stop1016"
         offset="0"
         style="stop-color:#ffffff;stop-opacity:1;" />
      <stop
         id="stop1018"
         offset="1"
         style="stop-color:#ffffff;stop-opacity:0.09411765" />
    </linearGradient>
    <filter
       inkscape:collect="always"
       style="color-interpolation-filters:sRGB"
       id="filter7390"
       x="-0.011851442"
       width="1.0237029"
       y="-0.014894864"
       height="1.0297897">
      <feGaussianBlur
         inkscape:collect="always"
         stdDeviation="2.05425"
         id="feGaussianBlur7392" />
    </filter>
    <linearGradient
       inkscape:collect="always"
       xlink:href="#linearGradient974"
       id="linearGradient3121"
       gradientUnits="userSpaceOnUse"
       gradientTransform="translate(-772.3616,467.28129)"
       x1="48"
       y1="44"
       x2="464"
       y2="44" />
    <radialGradient
       inkscape:collect="always"
       xlink:href="#linearGradient1020"
       id="radialGradient3123"
       gradientUnits="userSpaceOnUse"
       gradientTransform="matrix(-20.305784,-9.7177338e-7,0,-4.8172179,1815.9316,244.61884)"
       cx="63.999992"
       cy="196.63495"
       fx="63.999992"
       fy="196.63495"
       r="44" />
    <filter
       inkscape:collect="always"
       style="color-interpolation-filters:sRGB"
       id="filter7360"
       x="-0.011851442"
       width="1.0237029"
       y="-0.014894864"
       height="1.0297897">
      <feGaussianBlur
         inkscape:collect="always"
         stdDeviation="2.05425"
         id="feGaussianBlur7362" />
    </filter>
    <linearGradient
       inkscape:collect="always"
       xlink:href="#linearGradient19128"
       id="linearGradient2292"
       gradientUnits="userSpaceOnUse"
       gradientTransform="matrix(1.7619577,0,0,1.7619577,20.553657,522.70471)"
       x1="68"
       y1="282"
       x2="68"
       y2="276" />
    <linearGradient
       id="linearGradient19128"
       inkscape:collect="always">
      <stop
         id="stop19124"
         offset="0"
         style="stop-color:#c0bfbc;stop-opacity:1;" />
      <stop
         id="stop19126"
         offset="1"
         style="stop-color:#acaba7;stop-opacity:1" />
    </linearGradient>
    <linearGradient
       inkscape:collect="always"
       xlink:href="#linearGradient19136"
       id="linearGradient2294"
       gradientUnits="userSpaceOnUse"
       gradientTransform="matrix(1.7619577,0,0,1.7619577,20.553657,522.70471)"
       x1="66"
       y1="284"
       x2="66"
       y2="288" />
    <linearGradient
       id="linearGradient19136"
       inkscape:collect="always">
      <stop
         id="stop19132"
         offset="0"
         style="stop-color:#f6f5f4;stop-opacity:1;" />
      <stop
         id="stop19134"
         offset="1"
         style="stop-color:#d7d3ce;stop-opacity:1" />
    </linearGradient>
    <linearGradient
       inkscape:collect="always"
       xlink:href="#linearGradient974"
       id="linearGradient2296"
       gradientUnits="userSpaceOnUse"
       gradientTransform="matrix(0.44048943,0,0,0.44048943,20.553657,883.90605)"
       x1="48"
       y1="44"
       x2="464"
       y2="44" />
    <radialGradient
       gradientUnits="userSpaceOnUse"
       gradientTransform="matrix(-8.9444832,-4.280559e-7,0,-2.1219336,439.12789,-570.32156)"
       r="44"
       fy="196.63495"
       fx="63.999992"
       cy="196.63495"
       cx="63.999992"
       id="radialGradient1030"
       xlink:href="#linearGradient1020"
       inkscape:collect="always" />
  </defs>
  <metadata
     id="metadata7">
    <rdf:RDF>
      <cc:Work
         rdf:about="">
        <dc:format>image/svg+xml</dc:format>
        <dc:type
           rdf:resource="http://purl.org/dc/dcmitype/StillImage" />
        <dc:title />
      </cc:Work>
    </rdf:RDF>
  </metadata>
  <g
     inkscape:label="Livello 1"
     inkscape:groupmode="layer"
     id="layer1"
     transform="translate(0,-812.36218)">
    <g
       id="g5270">
      <text
         id="text4742"
         y="1781.8446"
         x="-1152.6017"
         style="font-style:normal;font-weight:normal;font-size:151.28013611px;line-height:302.56027222px;font-family:sans-serif;letter-spacing:0px;word-spacing:0px;fill:#800000;fill-opacity:1;stroke:none;stroke-width:12.10241127px;stroke-linecap:butt;stroke-linejoin:miter;stroke-opacity:1"
         xml:space="preserve"><tspan
           style="font-style:normal;font-variant:normal;font-weight:normal;font-stretch:normal;font-family:'Razer Blackwidow';-inkscape-font-specification:'Razer Blackwidow';fill:#800000;stroke-width:12.10241127px"
           y="1972.4221"
           x="-1152.6017"
           id="tspan4740"
           sodipodi:role="line" /></text>
      <text
         id="text4559"
         y="1968.4335"
         x="-847.09814"
         style="font-style:normal;font-variant:normal;font-weight:normal;font-stretch:normal;font-size:11.71874905px;line-height:1.40624988px;font-family:'Razer Blackwidow';-inkscape-font-specification:'Razer Blackwidow';letter-spacing:0px;word-spacing:0px;fill:#000000;fill-opacity:1;stroke:none;stroke-width:0.93749994px;stroke-linecap:butt;stroke-linejoin:miter;stroke-opacity:1"
         xml:space="preserve"><tspan
           id="tspan4565"
           style="font-style:normal;font-variant:normal;font-weight:normal;font-stretch:normal;line-height:2.34374976px;font-family:'Razer Blackwidow';-inkscape-font-specification:'Razer Blackwidow';stroke-width:0.93749994px"
           y="1972.5546"
           x="-847.09814"
           sodipodi:role="line" /></text>
      <path
         inkscape:connector-curvature="0"
         style="display:inline;opacity:0.4;fill:#000000;fill-opacity:1;stroke:none;stroke-width:20;stroke-linecap:square;stroke-linejoin:miter;stroke-miterlimit:4;stroke-dasharray:none;stroke-dashoffset:0;stroke-opacity:1;filter:url(#filter7404);enable-background:new"
         d="m -756.36157,408.28131 c -4.432,0 -8,3.568 -8,8 v 257 10 c 0,4.432 3.568,8 8,8 h 154.66601 l -2.66601,32 h -32 c -8,0 -16,8 -16,16 h 192 c 0,-8 -8,-16 -15.75,-16 h -32.25 l -2.66602,-32 h 154.66602 c 4.432,0 8,-3.568 8,-8 v -10 -257 c 0,-4.432 -3.568,-8 -8,-8 z"
         id="path7394"
         transform="matrix(0.44048943,0,0,0.44048943,354.15176,655.37844)" />
      <rect
         ry="3.5239155"
         rx="3.5239155"
         y="835.22205"
         x="17.458567"
         height="124.65849"
         width="183.24361"
         id="rect3131"
         style="display:inline;opacity:1;fill:url(#linearGradient3155);fill-opacity:1;stroke:none;stroke-width:0.44048944;stroke-linecap:butt;stroke-linejoin:miter;stroke-miterlimit:4;stroke-dasharray:none;stroke-dashoffset:0;stroke-opacity:1;marker:none;marker-start:none;marker-mid:none;marker-end:none;paint-order:normal;enable-background:new" />
      <rect
         style="display:inline;opacity:1;fill:#f6f5f4;fill-opacity:1;stroke:none;stroke-width:0.44048944;stroke-linecap:butt;stroke-linejoin:miter;stroke-miterlimit:4;stroke-dasharray:none;stroke-dashoffset:0;stroke-opacity:1;marker:none;marker-start:none;marker-mid:none;marker-end:none;paint-order:normal;enable-background:new"
         id="rect3133"
         width="183.24361"
         height="120.25359"
         x="17.458567"
         y="835.22205"
         rx="3.5239155"
         ry="3.5239155" />
      <rect
         style="display:inline;opacity:1;vector-effect:none;fill:#241f31;fill-opacity:1;stroke:none;stroke-width:0.01841258px;stroke-linecap:butt;stroke-linejoin:miter;stroke-miterlimit:4;stroke-dasharray:none;stroke-dashoffset:0;stroke-opacity:1;marker:none;marker-start:none;marker-mid:none;marker-end:none;paint-order:normal;enable-background:new"
         id="rect3135"
         width="176.63623"
         height="105.55226"
         x="20.762264"
         y="838.83771"
         rx="3.5239155"
         ry="3.5239155" />
      <rect
         transform="scale(-1)"
         style="display:inline;opacity:1;vector-effect:none;fill:#f9f06b;fill-opacity:1;stroke:none;stroke-width:0.01972042px;stroke-linecap:butt;stroke-linejoin:miter;stroke-miterlimit:4;stroke-dasharray:none;stroke-dashoffset:0;stroke-opacity:1;marker:none;marker-start:none;marker-mid:none;marker-end:none;paint-order:normal;enable-background:new"
         id="rect3171"
         width="166.505"
         height="93.659058"
         x="-192.33289"
         y="-938.44336" />
      <rect
         y="-938.44336"
         x="-192.33289"
         height="93.659058"
         width="166.505"
         id="rect3137"
         style="display:inline;opacity:0.05;vector-effect:none;fill:url(#radialGradient3157);fill-opacity:1;stroke:none;stroke-width:0.01972042px;stroke-linecap:butt;stroke-linejoin:miter;stroke-miterlimit:4;stroke-dasharray:none;stroke-dashoffset:0;stroke-opacity:1;marker:none;marker-start:none;marker-mid:none;marker-end:none;paint-order:normal;enable-background:new"
         transform="scale(-1)" />
      <path
         id="path7364"
         d="m -716.36157,468.28131 c -4.432,0 -8,3.568 -8,8 v 257 10 c 0,4.432 3.568,8 8,8 h 154.66601 l -2.66601,32 h -32 c -8,0 -16,8 -16,16 h 192 c 0,-8 -8,-16 -15.75,-16 h -32.25 l -2.66602,-32 h 154.66602 c 4.432,0 8,-3.568 8,-8 v -10 -257 c 0,-4.432 -3.568,-8 -8,-8 z"
         style="display:inline;opacity:0.4;fill:#000000;fill-opacity:1;stroke:none;stroke-width:20;stroke-linecap:square;stroke-linejoin:miter;stroke-miterlimit:4;stroke-dasharray:none;stroke-dashoffset:0;stroke-opacity:1;filter:url(#filter7390);enable-background:new"
         inkscape:connector-curvature="0"
         transform="matrix(0.44048943,0,0,0.44048943,348.65148,653.51133)" />
      <g
         id="g3216"
         transform="matrix(0.44048943,0,0,0.44048943,348.65148,653.51133)">
        <rect
           ry="8"
           rx="8"
           y="468.28131"
           x="-724.36157"
           height="282.99994"
           width="416"
           id="rect3089"
           style="display:inline;opacity:1;fill:url(#linearGradient3121);fill-opacity:1;stroke:none;stroke-width:1;stroke-linecap:butt;stroke-linejoin:miter;stroke-miterlimit:4;stroke-dasharray:none;stroke-dashoffset:0;stroke-opacity:1;marker:none;marker-start:none;marker-mid:none;marker-end:none;paint-order:normal;enable-background:new" />
        <rect
           style="display:inline;opacity:1;fill:#f6f5f4;fill-opacity:1;stroke:none;stroke-width:1;stroke-linecap:butt;stroke-linejoin:miter;stroke-miterlimit:4;stroke-dasharray:none;stroke-dashoffset:0;stroke-opacity:1;marker:none;marker-start:none;marker-mid:none;marker-end:none;paint-order:normal;enable-background:new"
           id="rect3091"
           width="416"
           height="272.99994"
           x="-724.36157"
           y="468.28131"
           rx="8"
           ry="8" />
        <rect
           style="display:inline;opacity:1;vector-effect:none;fill:#241f31;fill-opacity:1;stroke:none;stroke-width:0.04180028px;stroke-linecap:butt;stroke-linejoin:miter;stroke-miterlimit:4;stroke-dasharray:none;stroke-dashoffset:0;stroke-opacity:1;marker:none;marker-start:none;marker-mid:none;marker-end:none;paint-order:normal;enable-background:new"
           id="rect3093"
           width="400.99994"
           height="239.62495"
           x="-716.86151"
           y="476.48962"
           rx="8"
           ry="8" />
        <rect
           transform="scale(-1)"
           style="display:inline;opacity:1;vector-effect:none;fill:#dc8add;fill-opacity:1;stroke:none;stroke-width:0.04476933px;stroke-linecap:butt;stroke-linejoin:miter;stroke-miterlimit:4;stroke-dasharray:none;stroke-dashoffset:0;stroke-opacity:1;marker:none;marker-start:none;marker-mid:none;marker-end:none;paint-order:normal;enable-background:new"
           id="rect3236"
           width="378"
           height="212.62498"
           x="327.36154"
           y="-702.61456" />
        <rect
           y="-702.61456"
           x="327.36154"
           height="212.62498"
           width="378"
           id="rect3095"
           style="display:inline;opacity:0.05;vector-effect:none;fill:url(#radialGradient3123);fill-opacity:1;stroke:none;stroke-width:0.04476933px;stroke-linecap:butt;stroke-linejoin:miter;stroke-miterlimit:4;stroke-dasharray:none;stroke-dashoffset:0;stroke-opacity:1;marker:none;marker-start:none;marker-mid:none;marker-end:none;paint-order:normal;enable-background:new"
           transform="scale(-1)" />
      </g>
      <path
         style="display:inline;opacity:0.4;fill:#000000;fill-opacity:1;stroke:none;stroke-width:20;stroke-linecap:square;stroke-linejoin:miter;stroke-miterlimit:4;stroke-dasharray:none;stroke-dashoffset:0;stroke-opacity:1;filter:url(#filter7360);enable-background:new"
         d="m -554.10156,-95.949219 c -4.432,0 -8,3.568 -8,8 v 256.999999 10 c 0,4.432 3.568,8 8,8 h 154.66601 l -2.66601,32 h -32 c -8,0 -16,8 -16,16 h 192 c 0,-8 -8,-16 -15.75,-16 h -32.25 l -2.66602,-32 h 154.66602 c 4.432,0 8,-3.568 8,-8 v -10 -256.999999 c 0,-4.432 -3.568,-8 -8,-8 z"
         transform="matrix(0.44048943,0,0,0.44048943,289.29729,926.61151)"
         id="path863"
         inkscape:connector-curvature="0" />
      <path
         inkscape:connector-curvature="0"
         style="display:inline;opacity:1;fill:url(#linearGradient2292);fill-opacity:1;stroke:none;stroke-width:8.8097887;stroke-linecap:square;stroke-linejoin:miter;stroke-miterlimit:4;stroke-dasharray:none;stroke-dashoffset:0;stroke-opacity:1;enable-background:new"
         d="m 119.22329,938.52674 -7.04783,84.57396 h 21.14349 21.14349 l -7.04783,-84.57396 h -14.09566 z"
         id="rect2101" />
      <path
         style="display:inline;opacity:1;fill:url(#linearGradient2294);fill-opacity:1;stroke:none;stroke-width:8.80978775;stroke-linecap:square;stroke-linejoin:miter;stroke-miterlimit:4;stroke-dasharray:none;stroke-dashoffset:0;stroke-opacity:1;enable-background:new"
         d="m 98.079797,1023.1007 h 70.588433 c 3.41379,0 6.93771,3.5239 6.93771,7.0478 H 91.031967 c 0,-3.5239 3.523916,-7.0478 7.04783,-7.0478 z"
         id="rect2099"
         inkscape:connector-curvature="0"
         sodipodi:nodetypes="ccccc" />
      <rect
         ry="3.5239155"
         rx="3.5239155"
         y="884.34656"
         x="41.697163"
         height="124.65849"
         width="183.24361"
         id="rect1050"
         style="display:inline;opacity:1;fill:url(#linearGradient2296);fill-opacity:1;stroke:none;stroke-width:0.44048944;stroke-linecap:butt;stroke-linejoin:miter;stroke-miterlimit:4;stroke-dasharray:none;stroke-dashoffset:0;stroke-opacity:1;marker:none;marker-start:none;marker-mid:none;marker-end:none;paint-order:normal;enable-background:new" />
      <rect
         style="display:inline;opacity:1;fill:#f6f5f4;fill-opacity:1;stroke:none;stroke-width:0.44048944;stroke-linecap:butt;stroke-linejoin:miter;stroke-miterlimit:4;stroke-dasharray:none;stroke-dashoffset:0;stroke-opacity:1;marker:none;marker-start:none;marker-mid:none;marker-end:none;paint-order:normal;enable-background:new"
         id="rect1052"
         width="183.24361"
         height="120.25359"
         x="41.697163"
         y="884.34656"
         rx="3.5239155"
         ry="3.5239155" />
      <rect
         style="display:inline;opacity:1;vector-effect:none;fill:#241f31;fill-opacity:1;stroke:none;stroke-width:0.01841258px;stroke-linecap:butt;stroke-linejoin:miter;stroke-miterlimit:4;stroke-dasharray:none;stroke-dashoffset:0;stroke-opacity:1;marker:none;marker-start:none;marker-mid:none;marker-end:none;paint-order:normal;enable-background:new"
         id="rect2825"
         width="176.63623"
         height="105.55226"
         x="45.000862"
         y="887.96222"
         rx="3.5239155"
         ry="3.5239155" />
      <rect
         transform="scale(-1)"
         style="display:inline;opacity:1;vector-effect:none;fill:#33d17a;fill-opacity:1;stroke:none;stroke-width:0.01972042px;stroke-linecap:butt;stroke-linejoin:miter;stroke-miterlimit:4;stroke-dasharray:none;stroke-dashoffset:0;stroke-opacity:1;marker:none;marker-start:none;marker-mid:none;marker-end:none;paint-order:normal;enable-background:new"
         id="rect3238"
         width="166.505"
         height="93.659058"
         x="-216.57149"
         y="-987.56787" />
      <rect
         y="-987.56787"
         x="-216.57149"
         height="93.659058"
         width="166.505"
         id="rect968"
         style="display:inline;opacity:0.05;vector-effect:none;fill:url(#radialGradient1030);fill-opacity:1;stroke:none;stroke-width:0.01972042px;stroke-linecap:butt;stroke-linejoin:miter;stroke-miterlimit:4;stroke-dasharray:none;stroke-dashoffset:0;stroke-opacity:1;marker:none;marker-start:none;marker-mid:none;marker-end:none;paint-order:normal;enable-background:new"
         transform="scale(-1)" />
      <g
         id="g2995"
         style="fill:#9a9996"
         transform="matrix(0.44048943,0,0,0.44048943,343.1512,649.88225)">
        <path
           sodipodi:nodetypes="ssss"
           inkscape:connector-curvature="0"
           id="path19418"
           d="m -478.22775,799.28129 c -2.67469,0 -5.03806,-5.1996 -3.47033,-7.736 1.40221,-2.2688 11.43292,-2.1008 6.10211,2.2528 -3.34099,2.7284 0.38148,5.4832 -2.63178,5.4832 z"
           style="display:inline;fill:#9a9996;stroke:none;stroke-width:4px;stroke-linecap:butt;stroke-linejoin:miter;stroke-opacity:1;enable-background:new" />
        <ellipse
           transform="rotate(16.67423)"
           ry="3.0038934"
           rx="1.8565083"
           cy="889.04639"
           cx="-228.1438"
           id="path19963"
           style="display:inline;opacity:1;fill:#9a9996;fill-opacity:1;stroke:none;stroke-width:20;stroke-linecap:square;stroke-linejoin:miter;stroke-miterlimit:4;stroke-dasharray:none;stroke-dashoffset:0;stroke-opacity:1;enable-background:new" />
        <ellipse
           inkscape:transform-center-y="0.49112784"
           inkscape:transform-center-x="-0.06966772"
           style="display:inline;opacity:1;fill:#9a9996;fill-opacity:1;stroke:none;stroke-width:20.00230408;stroke-linecap:square;stroke-linejoin:miter;stroke-miterlimit:4;stroke-dasharray:none;stroke-dashoffset:0;stroke-opacity:1;enable-background:new"
           id="ellipse19965"
           cx="-507.04926"
           cy="779.45972"
           rx="1.1961135"
           ry="1.9994996"
           transform="matrix(0.99988671,-0.01505214,0.03650871,0.99933333,0,0)" />
        <ellipse
           transform="matrix(0.93780589,-0.34716007,0.34448108,0.93879326,0,0)"
           ry="1.6599623"
           rx="0.97222656"
           cy="571.88458"
           cx="-724.18292"
           id="ellipse19967"
           style="display:inline;opacity:1;fill:#9a9996;fill-opacity:1;stroke:none;stroke-width:20.00004005;stroke-linecap:square;stroke-linejoin:miter;stroke-miterlimit:4;stroke-dasharray:none;stroke-dashoffset:0;stroke-opacity:1;enable-background:new"
           inkscape:transform-center-x="-0.18025105"
           inkscape:transform-center-y="0.36924998" />
      </g>
    </g>
  </g>
</svg>
